example\HandlerKinesis.class
example\Handler.class
example\HandlerApiGateway.class
example\Util.class
example\HandlerCWLogs.class
example\HandlerS3.class
example\HandlerConfig.class
example\HandlerSNS.class
example\HandlerCognito.class
example\HandlerFirehose.class
example\HandlerCloudFront.class
example\HandlerCWEvents.class
example\HandlerCodeCommit.class
example\HandlerLex.class
example\HandlerDynamoDB.class
