D:\Q\grtzc-aws-lambda-ensure-timezones\src\main\java\example\HandlerCWEvents.java
D:\Q\grtzc-aws-lambda-ensure-timezones\src\main\java\example\HandlerApiGateway.java
D:\Q\grtzc-aws-lambda-ensure-timezones\src\main\java\example\HandlerCWLogs.java
D:\Q\grtzc-aws-lambda-ensure-timezones\src\main\java\example\HandlerKinesis.java
D:\Q\grtzc-aws-lambda-ensure-timezones\src\main\java\example\HandlerSNS.java
D:\Q\grtzc-aws-lambda-ensure-timezones\src\main\java\example\Util.java
D:\Q\grtzc-aws-lambda-ensure-timezones\src\main\java\example\HandlerCognito.java
D:\Q\grtzc-aws-lambda-ensure-timezones\src\main\java\example\HandlerDynamoDB.java
D:\Q\grtzc-aws-lambda-ensure-timezones\src\main\java\example\HandlerFirehose.java
D:\Q\grtzc-aws-lambda-ensure-timezones\src\main\java\example\HandlerCodeCommit.java
D:\Q\grtzc-aws-lambda-ensure-timezones\src\main\java\example\HandlerS3.java
D:\Q\grtzc-aws-lambda-ensure-timezones\src\main\java\example\HandlerLex.java
D:\Q\grtzc-aws-lambda-ensure-timezones\src\main\java\example\HandlerCloudFront.java
D:\Q\grtzc-aws-lambda-ensure-timezones\src\main\java\example\Handler.java
D:\Q\grtzc-aws-lambda-ensure-timezones\src\main\java\example\HandlerConfig.java
